20140328 183655.697 [03480] CLI Starting up; pid 3480
20140328 183655.697 [03480] CLI Sauce Connect 4.0, build 729 4040e83
20140328 183655.697 [03480] CLI Command line arguments: sc.exe -u srinivasuluj7 -k ****
20140328 184001.118 [03480] PROXY 127.0.0.1:52040 <- ie9cvlist.ie.microsoft.com:80 connection error: Connection timed out [WSAETIMEDOUT ]
20140328 184025.897 [03480] PROXY 127.0.0.1:52058 <- ie9cvlist.ie.microsoft.com:80 connection error: Connection timed out [WSAETIMEDOUT ]
20140328 184050.684 [03480] PROXY 127.0.0.1:52075 <- ie9cvlist.ie.microsoft.com:80 connection error: Connection timed out [WSAETIMEDOUT ]
